{
  "design_1": {
    "frequency_label": "havonta",

    "basic": {
      "public_transport": [
        { "symbol": "option_1", "value": 1, "price": 4550 },
        { "symbol": "option_2", "value": 2, "price": 9500 }
      ],

      "bike_sharing": [
        { "symbol": "option_0", "value": 0 },
        { "symbol": "option_1", "value": 1, "price": 3500 }
      ],

      "multipliers": [
        0.8, 0.85, 0.88, 0.95, 1.0, 1.05, 1.08, 1.12, 1.15, 1.20
      ]
    },

    "urban": {
      "public_transport": [
        { "symbol": "option_2", "value": 2, "price": 9550 }
      ],

      "bike_sharing": [
        { "symbol": "option_0", "value": 0 },
        { "symbol": "option_1", "value": 1, "price": 3500 }
      ],

      "taxi": [
        { "symbol": "option_1", "value": 1, "price": 4000 },
        { "symbol": "option_2", "value": 2, "price": 8000 },
        { "symbol": "option_3", "value": 3, "price": 12000 }
      ],

      "multipliers": [
        0.8, 0.85, 0.88, 0.95, 1.0, 1.05, 1.08, 1.12, 1.15, 1.20
      ]
    },

    "extra": {
      "public_transport": [
        { "symbol": "option_2", "value": 2, "price": 9550 }
      ],

      "bike_sharing": [
        { "symbol": "option_1", "value": 1, "price": 3500 }
      ],

      "taxi": [
        { "symbol": "option_0", "value": 0 },
        { "symbol": "option_3", "value": 3, "price": 12000 },
        { "symbol": "option_3", "value": 4, "price": 16000 },
        { "symbol": "option_8", "value": 8, "price": 32000 },
        { "symbol": "option_10", "value": 10, "price": 40000 }
      ],

      "car_sharing": [
        { "symbol": "option_0", "value": 0 },
        { "symbol": "option_1", "value": 1, "price": 3500 },
        { "symbol": "option_2", "value": 2, "price": 10000 },
        { "symbol": "option_3", "value": 3, "price": 15000 },
        { "symbol": "option_8", "value": 8, "price": 28000 },
        { "symbol": "option_12", "value": 12, "price": 42000 }
      ],

      "multipliers": [
        0.8, 0.85, 0.88, 0.95, 1.0, 1.05, 1.08, 1.12, 1.15, 1.20
      ]
    },

    "carrots": {
      "deals": [
        { "symbol": "option_1", "value": 1 },
        { "symbol": "option_2", "value": 2 },
        { "symbol": "option_3", "value": 3 }
      ],

      "durations": [
        { "symbol": "option_0", "value": 0 },
        { "symbol": "option_1", "value": 1 },
        { "symbol": "option_2", "value": 2 },
        { "symbol": "option_3", "value": 3 },
        { "symbol": "option_4", "value": 4 },
        { "symbol": "option_5", "value": 5 }
      ]
    },

    "sticks": [
      { "symbol": "option_1", "value": 1 },
      { "symbol": "option_2", "value": 2 },
      { "symbol": "option_3", "value": 3 },
      { "symbol": "option_4", "value": 4 },
      { "symbol": "option_5", "value": 5 }
    ]
  },

  "flexible": {
    "public_transport": [
      { "symbol": "option_0", "value": 0 },
      { "symbol": "option_1", "value": 1, "price": 4550 },
      { "symbol": "option_2", "value": 2, "price": 9550 }
    ],

    "bike_sharing": [
      { "symbol": "option_0", "value": 0 },
      { "symbol": "option_1", "value": 1, "price": 3500 }
    ],

    "taxi": [
      { "symbol": "option_0", "value": 0 },
      { "symbol": "option_1", "value": 1, "price": 4000 },
      { "symbol": "option_2", "value": 2, "price": 8000 },
      { "symbol": "option_3", "value": 3, "price": 12000 },
      { "symbol": "option_4", "value": 4, "price": 16000 },
      { "symbol": "option_8", "value": 8, "price": 32000 },
      { "symbol": "option_10", "value": 10, "price": 40000 }
    ],

    "car_sharing": [
      { "symbol": "option_0", "value": 0 },
      { "symbol": "option_1", "value": 1, "price": 3500 },
      { "symbol": "option_2", "value": 2, "price": 10000 },
      { "symbol": "option_3", "value": 3, "price": 15000 },
      { "symbol": "option_8", "value": 8, "price": 28000 },
      { "symbol": "option_12", "value": 12, "price": 42000 }
    ]
  },

  "design_4": {
    "payg": {
      "public_transport": [
        { "symbol": "option_1", "value": 1, "price": 0 }
      ],

      "bike_sharing": [
        { "symbol": "option_3", "value": 150 },
        { "symbol": "option_4", "value": 200 },
        { "symbol": "option_5", "value": 220 },
        { "symbol": "option_6", "value": 250 }
      ],

      "taxi": [
        { "symbol": "option_4", "value": 3500 },
        { "symbol": "option_5", "value": 3800 },
        { "symbol": "option_6", "value": 4000 }
      ],

      "car_sharing": [
        { "symbol": "option_3", "value": 3000 },
        { "symbol": "option_4", "value": 3500 },
        { "symbol": "option_5", "value": 3800 },
        { "symbol": "option_6", "value": 4000 }
      ],

      "plan_fee": [
        { "symbol": "option_1", "value": 0 },
        { "symbol": "option_2", "value": 1000 },
        { "symbol": "option_3", "value": 2000 },
        { "symbol": "option_4", "value": 3500 },
        { "symbol": "option_5", "value": 6000 }
      ],

      "contract_level": [
        { "symbol": "option_1", "value": 1 }
      ]

    },

    "weekly": {
      "public_transport": [
        { "symbol": "option_2", "value": 2, "price": 4800 },
        { "symbol": "option_3", "value": 3, "price": 4950 }
      ],

      "bike_sharing": [
        { "symbol": "option_2", "value": 130 },
        { "symbol": "option_3", "value": 150 },
        { "symbol": "option_4", "value": 200 },
        { "symbol": "option_5", "value": 220 }
      ],

      "taxi": [
        { "symbol": "option_2", "value": 2500 },
        { "symbol": "option_3", "value": 3000 },
        { "symbol": "option_4", "value": 3500 },
        { "symbol": "option_5", "value": 3800 }
      ],

      "car_sharing": [
        { "symbol": "option_2", "value": 2800 },
        { "symbol": "option_3", "value": 3000 },
        { "symbol": "option_4", "value": 3500 },
        { "symbol": "option_5", "value": 3800 }
      ],

      "plan_fee": [
        { "symbol": "multiplier", "value": 1, "multiplier": 0.80 },
        { "symbol": "multiplier", "value": 2, "multiplier": 0.85 },
        { "symbol": "multiplier", "value": 3, "multiplier": 0.88 },
        { "symbol": "multiplier", "value": 4, "multiplier": 0.95 },
        { "symbol": "multiplier", "value": 5, "multiplier": 1.00 },
        { "symbol": "multiplier", "value": 6, "multiplier": 1.05 },
        { "symbol": "multiplier", "value": 7, "multiplier": 1.12 },
        { "symbol": "multiplier", "value": 8, "multiplier": 1.15 },
        { "symbol": "multiplier", "value": 9, "multiplier": 1.20 }
      ],

      "contract_level": [
        { "symbol": "option_2", "value": 1 },
        { "symbol": "option_3", "value": 2 },
        { "symbol": "option_4", "value": 3 }
      ]
    },

    "monthly": {
      "public_transport": [
        { "symbol": "option_4", "value": 4, "price": 9000 },
        { "symbol": "option_5", "value": 5, "price": 9500 }
      ],

      "bike_sharing": [
        { "symbol": "option_1", "value": 100 },
        { "symbol": "option_2", "value": 130 },
        { "symbol": "option_3", "value": 150 },
        { "symbol": "option_4", "value": 200 }
      ],

      "taxi": [
        { "symbol": "option_1", "value": 2000 },
        { "symbol": "option_2", "value": 2500 },
        { "symbol": "option_3", "value": 3000 },
        { "symbol": "option_4", "value": 3500 }
      ],

      "car_sharing": [
        { "symbol": "option_1", "value": 2500 },
        { "symbol": "option_2", "value": 2800 },
        { "symbol": "option_3", "value": 3000 },
        { "symbol": "option_4", "value": 3500 }
      ],

      "plan_fee": [
        { "symbol": "multiplier", "value": 1, "multiplier": 0.80 },
        { "symbol": "multiplier", "value": 2, "multiplier": 0.85 },
        { "symbol": "multiplier", "value": 3, "multiplier": 0.88 },
        { "symbol": "multiplier", "value": 4, "multiplier": 0.95 },
        { "symbol": "multiplier", "value": 5, "multiplier": 1.00 },
        { "symbol": "multiplier", "value": 6, "multiplier": 1.05 },
        { "symbol": "multiplier", "value": 7, "multiplier": 1.12 },
        { "symbol": "multiplier", "value": 8, "multiplier": 1.15 },
        { "symbol": "multiplier", "value": 9, "multiplier": 1.20 }
      ],

      "contract_level": [
        { "symbol": "option_5", "value": 1 },
        { "symbol": "option_3", "value": 2 },
        { "symbol": "option_6", "value": 3 },
        { "symbol": "option_7", "value": 4 }
      ]
    }
  }
}